\begin{thebibliography}{3}
\expandafter\ifx\csname natexlab\endcsname\relax\def\natexlab#1{#1}\fi
\expandafter\ifx\csname fonteauteurs\endcsname\relax
\def\fonteauteurs{\scshape}\fi
\expandafter\ifx\csname url\endcsname\relax
  \def\url#1{{\tt #1}}%
    \message{You should include the url package}\fi

\bibitem[Arpaia et Ricchiuto(2015)]{arpaia}
L.~\bgroup\fonteauteurs\bgroup Arpaia\egroup\egroup{} et
  M.~\bgroup\fonteauteurs\bgroup Ricchiuto\egroup\egroup{} :
\newblock {Mesh adaptation by continuous deformation. Basics : accuracy,
  efficiency, well balancedness}.
\newblock Rap. tech., INRIA Bordeaux Sud-Ouest, 2015.
\newblock RR-8666, <hal-01102124>.

\bibitem[ASKES \emph{et~al.}(2000)ASKES, SLUYS, et JONG]{askes}
H.~\bgroup\fonteauteurs\bgroup ASKES\egroup\egroup{}, L.~J.
  \bgroup\fonteauteurs\bgroup SLUYS\egroup\egroup{} et B.~C.~C.
  \bgroup\fonteauteurs\bgroup JONG\egroup\egroup{} :
\newblock {Remeshing techniques for R-adaptives and combined H/R-adaptive
  analysis with application to 2D/3D crack propagation}.
\newblock {\em {European Congress on Computational Methods in Applied Sciences
  and Engineering}}, 2000.

\bibitem[Chen()]{vecNormal}
L.~\bgroup\fonteauteurs\bgroup Chen\egroup\egroup{} :
\newblock Programmim of finite elements in matlab.
\newblock Notes du cours Math 226 : Computational PDEs (Univeristy of
  California Irvine).
\newblock http://www.math.uci.edu/~chenlong/226/Ch3FEMCode.pdf.

\end{thebibliography}
