\relax 
\catcode `:\active 
\catcode `;\active 
\catcode `!\active 
\catcode `?\active 
\bibstyle{abbrvnat-fr}
\citation{arpaia}
\citation{arpaia}
\citation{askes}
\select@language{french}
\@writefile{toc}{\select@language{french}}
\@writefile{lof}{\select@language{french}}
\@writefile{lot}{\select@language{french}}
\@writefile{toc}{\contentsline {section}{\numberline {1}Le mod\IeC {\`e}le : formulation du probl\IeC {\`e}me et discr\IeC {\'e}tisation en \IeC {\'e}l\IeC {\'e}ments finis}{1}}
\newlabel{eq:laplacien}{{1}{1}}
\newlabel{eq:systeme}{{2}{1}}
\@writefile{toc}{\contentsline {subsection}{\numberline {1.1}La fonction \relax $\boldsymbol  {\omega }\relax \GenericError  {               }{LaTeX Error: Bad math environment delimiter}{See the LaTeX manual or LaTeX Companion for explanation.}{Your command was ignored.\MessageBreak Type  I <command> <return>  to replace it with another command,\MessageBreak or  <return>  to continue without it.}}{1}}
\citation{vecNormal}
\newlabel{eq:omega1}{{4}{2}}
\newlabel{eq:omega2}{{5}{2}}
\@writefile{toc}{\contentsline {subsection}{\numberline {1.2}Discr\IeC {\'e}tisation en \IeC {\'e}l\IeC {\'e}ments finis P1}{2}}
\newlabel{eq:syst_final}{{6}{2}}
\@writefile{toc}{\contentsline {subsection}{\numberline {1.3}Quelques \IeC {\'e}l\IeC {\'e}ments pour le calcul de K}{2}}
\@writefile{toc}{\contentsline {section}{\numberline {2}Premiers r\IeC {\'e}sultats}{3}}
\@writefile{lot}{\contentsline {table}{\numberline {1}{\ignorespaces D\IeC {\'e}finition des tailles d\IeC {\'e}sir\IeC {\'e}es \relax }}{3}}
\providecommand*\caption@xref[2]{\@setref\relax\@undefined{#1}}
\newlabel{tab:tailles}{{1}{3}}
\@writefile{toc}{\contentsline {subsection}{\numberline {2.1}Adaptation \IeC {\`a} partir d'un maillage homog\IeC {\`e}ne}{4}}
\@writefile{lof}{\contentsline {figure}{\numberline {1}{\ignorespaces Maillage initial \relax }}{4}}
\newlabel{fig:dom}{{1}{4}}
\newlabel{fig:sphereLS}{{2a}{4}}
\newlabel{sub@fig:sphereLS}{{a}{4}}
\newlabel{fig:torusLS}{{2b}{4}}
\newlabel{sub@fig:torusLS}{{b}{4}}
\newlabel{fig:holeLS}{{2c}{4}}
\newlabel{sub@fig:holeLS}{{c}{4}}
\@writefile{lof}{\contentsline {figure}{\numberline {2}{\ignorespaces Fonctions Level Set utilis\IeC {\'e}es \relax }}{4}}
\newlabel{ref:LS}{{2}{4}}
\newlabel{fig:sphereA}{{3a}{5}}
\newlabel{sub@fig:sphereA}{{a}{5}}
\newlabel{fig:sphereB}{{3b}{5}}
\newlabel{sub@fig:sphereB}{{b}{5}}
\@writefile{lof}{\contentsline {figure}{\numberline {3}{\ignorespaces Adaptation \IeC {\`a} la sph\IeC {\`e}re \relax }}{5}}
\newlabel{fig:sphereAdapt}{{3}{5}}
\newlabel{fig:torusA}{{4a}{5}}
\newlabel{sub@fig:torusA}{{a}{5}}
\newlabel{fig:torusB}{{4b}{5}}
\newlabel{sub@fig:torusB}{{b}{5}}
\@writefile{lof}{\contentsline {figure}{\numberline {4}{\ignorespaces Adaptation au tore apr\IeC {\`e}s 30 it\IeC {\'e}rations; \relax $\omega \relax \GenericError  {               }{LaTeX Error: Bad math environment delimiter}{See the LaTeX manual or LaTeX Companion for explanation.}{Your command was ignored.\MessageBreak Type  I <command> <return>  to replace it with another command,\MessageBreak or  <return>  to continue without it.} calcul\IeC {\'e}e \IeC {\`a} partir des tailles \relax }}{5}}
\newlabel{fig:torusAdapt}{{4}{5}}
\newlabel{fig:holeA}{{5a}{6}}
\newlabel{sub@fig:holeA}{{a}{6}}
\newlabel{fig:holeB}{{5b}{6}}
\newlabel{sub@fig:holeB}{{b}{6}}
\@writefile{lof}{\contentsline {figure}{\numberline {5}{\ignorespaces Adaptation \IeC {\`a} la bo\IeC {\^\i }te avec un trou apr\IeC {\`e}s 30 it\IeC {\'e}rations; \relax $\omega \relax \GenericError  {               }{LaTeX Error: Bad math environment delimiter}{See the LaTeX manual or LaTeX Companion for explanation.}{Your command was ignored.\MessageBreak Type  I <command> <return>  to replace it with another command,\MessageBreak or  <return>  to continue without it.} calcul\IeC {\'e}e \IeC {\`a} partir des tailles \relax }}{6}}
\newlabel{fig:holeAdapt}{{5}{6}}
\@writefile{toc}{\contentsline {subsection}{\numberline {2.2}Adaptation \IeC {\`a} partir d'un maillage raffin\IeC {\'e} autour de l'objet}{7}}
\newlabel{fig:domSphere}{{6a}{7}}
\newlabel{sub@fig:domSphere}{{a}{7}}
\newlabel{fig:sphereMMG}{{6b}{7}}
\newlabel{sub@fig:sphereMMG}{{b}{7}}
\@writefile{lof}{\contentsline {figure}{\numberline {6}{\ignorespaces Adaptation \IeC {\`a} la sph\IeC {\`e}re \IeC {\`a} partir du maillage optimis\IeC {\'e} \relax }}{7}}
\newlabel{fig:sphereAdaptMMG}{{6}{7}}
\@writefile{toc}{\contentsline {section}{\numberline {3}D\IeC {\'e}sadaptation}{7}}
\newlabel{fig:domTorus}{{7a}{8}}
\newlabel{sub@fig:domTorus}{{a}{8}}
\newlabel{fig:torusMMG}{{7b}{8}}
\newlabel{sub@fig:torusMMG}{{b}{8}}
\@writefile{lof}{\contentsline {figure}{\numberline {7}{\ignorespaces Adaptation au tore \IeC {\`a} partir du maillage optimis\IeC {\'e} \relax }}{8}}
\newlabel{fig:torusAdaptMMG}{{7}{8}}
\newlabel{fig:domHole}{{8a}{8}}
\newlabel{sub@fig:domHole}{{a}{8}}
\newlabel{fig:holeMMG}{{8b}{8}}
\newlabel{sub@fig:holeMMG}{{b}{8}}
\@writefile{lof}{\contentsline {figure}{\numberline {8}{\ignorespaces Adaptation \IeC {\`a} la bo\IeC {\^\i }te avec un trou \IeC {\`a} partir du maillage optimis\IeC {\'e} \relax }}{8}}
\newlabel{fig:holeAdaptMMG}{{8}{8}}
\@writefile{lof}{\contentsline {figure}{\numberline {9}{\ignorespaces D\IeC {\'e}sadaptation d'un mailla adapt\IeC {\'e} \IeC {\`a} la fonction Level Set d'une sph\IeC {\`e}re \relax }}{9}}
\newlabel{fig:desaptSphere}{{9}{9}}
\bibdata{bibliographie}
\bibcite{arpaia}{{1}{2015}{{Arpaia et Ricchiuto}}{{}}}
\bibcite{askes}{{2}{2000}{{ASKES \emph  {et~al.}}}{{ASKES, SLUYS, et JONG}}}
\bibcite{vecNormal}{{3}{}{{Chen}}{{}}}
