\relax 
\catcode `:\active 
\catcode `;\active 
\catcode `!\active 
\catcode `?\active 
\select@language{french}
\@writefile{toc}{\select@language{french}}
\@writefile{lof}{\select@language{french}}
\@writefile{lot}{\select@language{french}}
\@writefile{toc}{\contentsline {section}{\numberline {1}Proc\IeC {\'e}dure}{1}}
\@writefile{toc}{\contentsline {section}{\numberline {2}R\IeC {\'e}sultats}{2}}
\@writefile{toc}{\contentsline {subsection}{\numberline {2.1}Test 1}{2}}
\@writefile{lof}{\contentsline {figure}{\numberline {1}{\ignorespaces Maillage initial - 3480 noeuds et 6893 \IeC {\'e}l\IeC {\'e}ments \relax }}{2}}
\providecommand*\caption@xref[2]{\@setref\relax\@undefined{#1}}
\newlabel{fig:domT1}{{1}{2}}
\@writefile{lof}{\contentsline {figure}{\numberline {2}{\ignorespaces Adaptation \IeC {\`a} la fonction Level Set - 200 it\IeC {\'e}rations; couche de taille relative \relax $\delta = 0.0001\relax \GenericError  {               }{LaTeX Error: Bad math environment delimiter}{See the LaTeX manual or LaTeX Companion for explanation.}{Your command was ignored.\MessageBreak Type  I <command> <return>  to replace it with another command,\MessageBreak or  <return>  to continue without it.}; gradation 1.3 \relax }}{2}}
\newlabel{fig:adaptLST1}{{2}{2}}
\newlabel{fig:uDetailT1}{{3b}{3}}
\newlabel{sub@fig:uDetailT1}{{b}{3}}
\newlabel{fig:resT1}{{3c}{3}}
\newlabel{sub@fig:resT1}{{c}{3}}
\@writefile{lof}{\contentsline {figure}{\numberline {3}{\ignorespaces R\IeC {\'e}sultat de la r\IeC {\'e}solution du probl\IeC {\`e}me physique \relax }}{3}}
\newlabel{fig:uT1}{{3}{3}}
\@writefile{lof}{\contentsline {figure}{\numberline {4}{\ignorespaces Adaptation \IeC {\`a} la vitesse \relax $u\relax \GenericError  {               }{LaTeX Error: Bad math environment delimiter}{See the LaTeX manual or LaTeX Companion for explanation.}{Your command was ignored.\MessageBreak Type  I <command> <return>  to replace it with another command,\MessageBreak or  <return>  to continue without it.} - 200 it\IeC {\'e}rations; gradation 1.3 \relax }}{3}}
\newlabel{fig:adaptPhysT1}{{4}{3}}
\newlabel{fig:investig0T1}{{5a}{4}}
\newlabel{sub@fig:investig0T1}{{a}{4}}
\newlabel{fig:investig1T1}{{5b}{4}}
\newlabel{sub@fig:investig1T1}{{b}{4}}
\newlabel{fig:investig0bT1}{{5c}{4}}
\newlabel{sub@fig:investig0bT1}{{c}{4}}
\newlabel{fig:investig1bT1}{{5d}{4}}
\newlabel{sub@fig:investig1bT1}{{d}{4}}
\@writefile{lof}{\contentsline {figure}{\numberline {5}{\ignorespaces Comaparaison : 30\IeC {\`e}me it\IeC {\'e}ration du calcul r\IeC {\'e}ussi et du calcul \IeC {\'e}chou\IeC {\'e} \relax }}{4}}
\newlabel{fig:investigT1}{{5}{4}}
\newlabel{fig:uDetailT1}{{6b}{5}}
\newlabel{sub@fig:uDetailT1}{{b}{5}}
\newlabel{fig:resIterT1}{{6c}{5}}
\newlabel{sub@fig:resIterT1}{{c}{5}}
\@writefile{lof}{\contentsline {figure}{\numberline {6}{\ignorespaces R\IeC {\'e}sultat de la deuxi\IeC {\`e}me r\IeC {\'e}solution du probl\IeC {\`e}me physique \relax }}{5}}
\newlabel{fig:uIterT1}{{6}{5}}
\newlabel{fig:investig0T1}{{7a}{5}}
\newlabel{sub@fig:investig0T1}{{a}{5}}
\newlabel{fig:investig1T1}{{7b}{5}}
\newlabel{sub@fig:investig1T1}{{b}{5}}
\@writefile{lof}{\contentsline {figure}{\numberline {7}{\ignorespaces Comparaison : vitesse \relax $u\relax \GenericError  {               }{LaTeX Error: Bad math environment delimiter}{See the LaTeX manual or LaTeX Companion for explanation.}{Your command was ignored.\MessageBreak Type  I <command> <return>  to replace it with another command,\MessageBreak or  <return>  to continue without it.} dans les deux r\IeC {\'e}solutions du probl\IeC {\`e}me physique \relax }}{5}}
\newlabel{fig:compT1}{{7}{5}}
\@writefile{lof}{\contentsline {figure}{\numberline {8}{\ignorespaces Test 1 - Maillages utilis\IeC {\'e}s les r\IeC {\'e}solution successives \relax }}{6}}
\newlabel{fig:domT1b}{{8}{6}}
\@writefile{lof}{\contentsline {figure}{\numberline {9}{\ignorespaces Test 1 - Vitesse \relax $u\relax \GenericError  {               }{LaTeX Error: Bad math environment delimiter}{See the LaTeX manual or LaTeX Companion for explanation.}{Your command was ignored.\MessageBreak Type  I <command> <return>  to replace it with another command,\MessageBreak or  <return>  to continue without it.} dans les r\IeC {\'e}solution successives \relax }}{7}}
\newlabel{fig:uT1b}{{9}{7}}
\@writefile{lof}{\contentsline {figure}{\numberline {10}{\ignorespaces Test 1 - Lignes de niveau de la vitesse \relax $u\relax \GenericError  {               }{LaTeX Error: Bad math environment delimiter}{See the LaTeX manual or LaTeX Companion for explanation.}{Your command was ignored.\MessageBreak Type  I <command> <return>  to replace it with another command,\MessageBreak or  <return>  to continue without it.} dans les r\IeC {\'e}solution successives \relax }}{8}}
\newlabel{fig:contourT1b}{{10}{8}}
\@writefile{lof}{\contentsline {figure}{\numberline {11}{\ignorespaces Test 1 - R\IeC {\'e}sidus dans les r\IeC {\'e}solution successives \relax }}{9}}
\newlabel{fig:resT1b}{{11}{9}}
\@writefile{lof}{\contentsline {figure}{\numberline {12}{\ignorespaces Exemple d'une mauvaise adaptation \relax }}{10}}
\newlabel{fig:domBad}{{12}{10}}
\@writefile{lof}{\contentsline {figure}{\numberline {13}{\ignorespaces Maillage utilis\IeC {\'e} pour le deuxi\IeC {\`e}me test \relax }}{10}}
\newlabel{fig:circle}{{13}{10}}
\@writefile{toc}{\contentsline {subsection}{\numberline {2.2}Test 2}{10}}
\@writefile{lof}{\contentsline {figure}{\numberline {14}{\ignorespaces Test 2 - Maillages utilis\IeC {\'e}s les r\IeC {\'e}solution successives \relax }}{11}}
\newlabel{fig:domTCercle1b}{{14}{11}}
\@writefile{lof}{\contentsline {figure}{\numberline {15}{\ignorespaces Test 2 - Vitesse \relax $u\relax \GenericError  {               }{LaTeX Error: Bad math environment delimiter}{See the LaTeX manual or LaTeX Companion for explanation.}{Your command was ignored.\MessageBreak Type  I <command> <return>  to replace it with another command,\MessageBreak or  <return>  to continue without it.} dans les r\IeC {\'e}solution successives \relax }}{12}}
\newlabel{fig:uTCercle1b}{{15}{12}}
\@writefile{lof}{\contentsline {figure}{\numberline {16}{\ignorespaces Test 2 - Lignes de niveau de la vitesse \relax $u\relax \GenericError  {               }{LaTeX Error: Bad math environment delimiter}{See the LaTeX manual or LaTeX Companion for explanation.}{Your command was ignored.\MessageBreak Type  I <command> <return>  to replace it with another command,\MessageBreak or  <return>  to continue without it.} dans les r\IeC {\'e}solution successives \relax }}{13}}
\newlabel{fig:contourTCercle1b}{{16}{13}}
\@writefile{lof}{\contentsline {figure}{\numberline {17}{\ignorespaces Test 2 - R\IeC {\'e}sidus dans les r\IeC {\'e}solution successives \relax }}{13}}
\newlabel{fig:resTCercle1b}{{17}{13}}
\@writefile{toc}{\contentsline {subsection}{\numberline {2.3}Test 3}{14}}
\@writefile{lof}{\contentsline {figure}{\numberline {18}{\ignorespaces Test 3 - Maillages utilis\IeC {\'e}s les r\IeC {\'e}solution successives \relax }}{14}}
\newlabel{fig:domTCercle1d}{{18}{14}}
\@writefile{lof}{\contentsline {figure}{\numberline {19}{\ignorespaces Test 3 - Vitesse \relax $u\relax \GenericError  {               }{LaTeX Error: Bad math environment delimiter}{See the LaTeX manual or LaTeX Companion for explanation.}{Your command was ignored.\MessageBreak Type  I <command> <return>  to replace it with another command,\MessageBreak or  <return>  to continue without it.} dans les r\IeC {\'e}solution successives \relax }}{15}}
\newlabel{fig:uTCercle1d}{{19}{15}}
\@writefile{lof}{\contentsline {figure}{\numberline {20}{\ignorespaces Test 3 - Lignes de niveau de la vitesse \relax $u\relax \GenericError  {               }{LaTeX Error: Bad math environment delimiter}{See the LaTeX manual or LaTeX Companion for explanation.}{Your command was ignored.\MessageBreak Type  I <command> <return>  to replace it with another command,\MessageBreak or  <return>  to continue without it.} dans les r\IeC {\'e}solution successives \relax }}{16}}
\newlabel{fig:contourTCercle1d}{{20}{16}}
\@writefile{lof}{\contentsline {figure}{\numberline {21}{\ignorespaces Test 3 - R\IeC {\'e}sidus dans les r\IeC {\'e}solution successives \relax }}{16}}
\newlabel{fig:resTCercle1d}{{21}{16}}
