\relax 
\catcode `:\active 
\catcode `;\active 
\catcode `!\active 
\catcode `?\active 
\bibstyle{abbrvnat-fr}
\citation{leo}
\citation{frey2}
\citation{leo}
\citation{leo}
\select@language{french}
\@writefile{toc}{\select@language{french}}
\@writefile{lof}{\select@language{french}}
\@writefile{lot}{\select@language{french}}
\@writefile{toc}{\contentsline {section}{\numberline {1}Introduction}{1}}
\@writefile{toc}{\contentsline {section}{\numberline {2}Calcul des tailles d\IeC {\'e}sir\IeC {\'e}es \IeC {\`a} partir d'une m\IeC {\'e}trique}{1}}
\newlabel{eq:norme}{{1}{1}}
\@writefile{toc}{\contentsline {section}{\numberline {3}R\IeC {\'e}sultats 2D}{2}}
\providecommand*\caption@xref[2]{\@setref\relax\@undefined{#1}}
\newlabel{fig:grad2DT3Tout}{{1a}{3}}
\newlabel{sub@fig:grad2DT3Tout}{{a}{3}}
\newlabel{fig:grad2DT3Detail}{{1b}{3}}
\newlabel{sub@fig:grad2DT3Detail}{{b}{3}}
\@writefile{lof}{\contentsline {figure}{\numberline {1}{\ignorespaces \relax $\delta = \relax \GenericError  {               }{LaTeX Error: Bad math environment delimiter}{See the LaTeX manual or LaTeX Companion for explanation.}{Your command was ignored.\MessageBreak Type  I <command> <return>  to replace it with another command,\MessageBreak or  <return>  to continue without it.} 0.05; \relax $hgrad = \relax \GenericError  {               }{LaTeX Error: Bad math environment delimiter}{See the LaTeX manual or LaTeX Companion for explanation.}{Your command was ignored.\MessageBreak Type  I <command> <return>  to replace it with another command,\MessageBreak or  <return>  to continue without it.}-; 14 it\IeC {\'e}rations \relax }}{3}}
\newlabel{fig:grad2DT3}{{1}{3}}
\newlabel{fig:grad2DT2Tout}{{2a}{3}}
\newlabel{sub@fig:grad2DT2Tout}{{a}{3}}
\newlabel{fig:grad2DT2Detail}{{2b}{3}}
\newlabel{sub@fig:grad2DT2Detail}{{b}{3}}
\@writefile{lof}{\contentsline {figure}{\numberline {2}{\ignorespaces \relax $\delta = \relax \GenericError  {               }{LaTeX Error: Bad math environment delimiter}{See the LaTeX manual or LaTeX Companion for explanation.}{Your command was ignored.\MessageBreak Type  I <command> <return>  to replace it with another command,\MessageBreak or  <return>  to continue without it.} 0.05; \relax $hgrad = \relax \GenericError  {               }{LaTeX Error: Bad math environment delimiter}{See the LaTeX manual or LaTeX Companion for explanation.}{Your command was ignored.\MessageBreak Type  I <command> <return>  to replace it with another command,\MessageBreak or  <return>  to continue without it.}1.1; 50 it\IeC {\'e}rations \relax }}{3}}
\newlabel{fig:grad2DT2}{{2}{3}}
\newlabel{fig:grad2DT1Tout}{{3a}{3}}
\newlabel{sub@fig:grad2DT1Tout}{{a}{3}}
\newlabel{fig:grad2DT1Detail}{{3b}{3}}
\newlabel{sub@fig:grad2DT1Detail}{{b}{3}}
\@writefile{lof}{\contentsline {figure}{\numberline {3}{\ignorespaces \relax $\delta = \relax \GenericError  {               }{LaTeX Error: Bad math environment delimiter}{See the LaTeX manual or LaTeX Companion for explanation.}{Your command was ignored.\MessageBreak Type  I <command> <return>  to replace it with another command,\MessageBreak or  <return>  to continue without it.} 0.05; \relax $hgrad = \relax \GenericError  {               }{LaTeX Error: Bad math environment delimiter}{See the LaTeX manual or LaTeX Companion for explanation.}{Your command was ignored.\MessageBreak Type  I <command> <return>  to replace it with another command,\MessageBreak or  <return>  to continue without it.}1.3; 50 it\IeC {\'e}rations \relax }}{3}}
\newlabel{fig:grad2DT1}{{3}{3}}
\newlabel{fig:grad2DT4Tout}{{4a}{4}}
\newlabel{sub@fig:grad2DT4Tout}{{a}{4}}
\newlabel{fig:grad2DT4Detail}{{4b}{4}}
\newlabel{sub@fig:grad2DT4Detail}{{b}{4}}
\@writefile{lof}{\contentsline {figure}{\numberline {4}{\ignorespaces \relax $\delta = \relax \GenericError  {               }{LaTeX Error: Bad math environment delimiter}{See the LaTeX manual or LaTeX Companion for explanation.}{Your command was ignored.\MessageBreak Type  I <command> <return>  to replace it with another command,\MessageBreak or  <return>  to continue without it.} 0.05; \relax $hgrad = \relax \GenericError  {               }{LaTeX Error: Bad math environment delimiter}{See the LaTeX manual or LaTeX Companion for explanation.}{Your command was ignored.\MessageBreak Type  I <command> <return>  to replace it with another command,\MessageBreak or  <return>  to continue without it.}1.5; 50 it\IeC {\'e}rations \relax }}{4}}
\newlabel{fig:grad2DT4}{{4}{4}}
\newlabel{fig:grad2DT5Tout}{{5a}{4}}
\newlabel{sub@fig:grad2DT5Tout}{{a}{4}}
\newlabel{fig:grad2DT5Detail}{{5b}{4}}
\newlabel{sub@fig:grad2DT5Detail}{{b}{4}}
\@writefile{lof}{\contentsline {figure}{\numberline {5}{\ignorespaces \relax $\delta = \relax \GenericError  {               }{LaTeX Error: Bad math environment delimiter}{See the LaTeX manual or LaTeX Companion for explanation.}{Your command was ignored.\MessageBreak Type  I <command> <return>  to replace it with another command,\MessageBreak or  <return>  to continue without it.} 0.075; \relax $hgrad = \relax \GenericError  {               }{LaTeX Error: Bad math environment delimiter}{See the LaTeX manual or LaTeX Companion for explanation.}{Your command was ignored.\MessageBreak Type  I <command> <return>  to replace it with another command,\MessageBreak or  <return>  to continue without it.}1.3; 50 it\IeC {\'e}rations \relax }}{4}}
\newlabel{fig:grad2DT5}{{5}{4}}
\newlabel{fig:grad2DT6Tout}{{6a}{4}}
\newlabel{sub@fig:grad2DT6Tout}{{a}{4}}
\newlabel{fig:grad2DT6Detail}{{6b}{4}}
\newlabel{sub@fig:grad2DT6Detail}{{b}{4}}
\@writefile{lof}{\contentsline {figure}{\numberline {6}{\ignorespaces \relax $\delta = \relax \GenericError  {               }{LaTeX Error: Bad math environment delimiter}{See the LaTeX manual or LaTeX Companion for explanation.}{Your command was ignored.\MessageBreak Type  I <command> <return>  to replace it with another command,\MessageBreak or  <return>  to continue without it.} 0.075; \relax $hgrad = \relax \GenericError  {               }{LaTeX Error: Bad math environment delimiter}{See the LaTeX manual or LaTeX Companion for explanation.}{Your command was ignored.\MessageBreak Type  I <command> <return>  to replace it with another command,\MessageBreak or  <return>  to continue without it.}1.5; 50 it\IeC {\'e}rations \relax }}{4}}
\newlabel{fig:grad2DT6}{{6}{4}}
\@writefile{toc}{\contentsline {section}{\numberline {4}R\IeC {\'e}sultats 3D}{5}}
\@writefile{lof}{\contentsline {figure}{\numberline {7}{\ignorespaces Maillage initial \relax }}{5}}
\newlabel{fig:dom}{{7}{5}}
\newlabel{fig:grad3DT2Tout}{{8a}{6}}
\newlabel{sub@fig:grad3DT2Tout}{{a}{6}}
\newlabel{fig:grad3DT2Detail}{{8b}{6}}
\newlabel{sub@fig:grad3DT2Detail}{{b}{6}}
\@writefile{lof}{\contentsline {figure}{\numberline {8}{\ignorespaces \relax $\delta = \relax \GenericError  {               }{LaTeX Error: Bad math environment delimiter}{See the LaTeX manual or LaTeX Companion for explanation.}{Your command was ignored.\MessageBreak Type  I <command> <return>  to replace it with another command,\MessageBreak or  <return>  to continue without it.} 0.05; \relax $hgrad = \relax \GenericError  {               }{LaTeX Error: Bad math environment delimiter}{See the LaTeX manual or LaTeX Companion for explanation.}{Your command was ignored.\MessageBreak Type  I <command> <return>  to replace it with another command,\MessageBreak or  <return>  to continue without it.}-; 50 it\IeC {\'e}rations \relax }}{6}}
\newlabel{fig:grad3DT2}{{8}{6}}
\newlabel{fig:grad3DT1Tout}{{9a}{6}}
\newlabel{sub@fig:grad3DT1Tout}{{a}{6}}
\newlabel{fig:grad3DT1Detail}{{9b}{6}}
\newlabel{sub@fig:grad3DT1Detail}{{b}{6}}
\@writefile{lof}{\contentsline {figure}{\numberline {9}{\ignorespaces \relax $\delta = \relax \GenericError  {               }{LaTeX Error: Bad math environment delimiter}{See the LaTeX manual or LaTeX Companion for explanation.}{Your command was ignored.\MessageBreak Type  I <command> <return>  to replace it with another command,\MessageBreak or  <return>  to continue without it.} 0.05; \relax $hgrad = \relax \GenericError  {               }{LaTeX Error: Bad math environment delimiter}{See the LaTeX manual or LaTeX Companion for explanation.}{Your command was ignored.\MessageBreak Type  I <command> <return>  to replace it with another command,\MessageBreak or  <return>  to continue without it.}1.3; 50 it\IeC {\'e}rations \relax }}{6}}
\newlabel{fig:grad3DT1}{{9}{6}}
\newlabel{fig:grad3DT3Tout}{{10a}{6}}
\newlabel{sub@fig:grad3DT3Tout}{{a}{6}}
\newlabel{fig:grad3DT3Detail}{{10b}{6}}
\newlabel{sub@fig:grad3DT3Detail}{{b}{6}}
\@writefile{lof}{\contentsline {figure}{\numberline {10}{\ignorespaces \relax $\delta = \relax \GenericError  {               }{LaTeX Error: Bad math environment delimiter}{See the LaTeX manual or LaTeX Companion for explanation.}{Your command was ignored.\MessageBreak Type  I <command> <return>  to replace it with another command,\MessageBreak or  <return>  to continue without it.} 0.05; \relax $hgrad = \relax \GenericError  {               }{LaTeX Error: Bad math environment delimiter}{See the LaTeX manual or LaTeX Companion for explanation.}{Your command was ignored.\MessageBreak Type  I <command> <return>  to replace it with another command,\MessageBreak or  <return>  to continue without it.}1.5; 50 it\IeC {\'e}rations \relax }}{6}}
\newlabel{fig:grad3DT3}{{10}{6}}
\@writefile{lof}{\contentsline {figure}{\numberline {11}{\ignorespaces Maillage initial \relax }}{7}}
\newlabel{fig:hole}{{11}{7}}
\newlabel{fig:grad3DT4Tout}{{12a}{7}}
\newlabel{sub@fig:grad3DT4Tout}{{a}{7}}
\newlabel{fig:grad3DT4Detail}{{12b}{7}}
\newlabel{sub@fig:grad3DT4Detail}{{b}{7}}
\@writefile{lof}{\contentsline {figure}{\numberline {12}{\ignorespaces \relax $\delta = \relax \GenericError  {               }{LaTeX Error: Bad math environment delimiter}{See the LaTeX manual or LaTeX Companion for explanation.}{Your command was ignored.\MessageBreak Type  I <command> <return>  to replace it with another command,\MessageBreak or  <return>  to continue without it.} 0.05; \relax $hgrad = \relax \GenericError  {               }{LaTeX Error: Bad math environment delimiter}{See the LaTeX manual or LaTeX Companion for explanation.}{Your command was ignored.\MessageBreak Type  I <command> <return>  to replace it with another command,\MessageBreak or  <return>  to continue without it.}1.5; 50 it\IeC {\'e}rations \relax }}{7}}
\newlabel{fig:grad3DT4}{{12}{7}}
\newlabel{fig:grad3DT5Tout}{{13a}{7}}
\newlabel{sub@fig:grad3DT5Tout}{{a}{7}}
\newlabel{fig:grad3DT5Detail}{{13b}{7}}
\newlabel{sub@fig:grad3DT5Detail}{{b}{7}}
\@writefile{lof}{\contentsline {figure}{\numberline {13}{\ignorespaces \relax $\delta = \relax \GenericError  {               }{LaTeX Error: Bad math environment delimiter}{See the LaTeX manual or LaTeX Companion for explanation.}{Your command was ignored.\MessageBreak Type  I <command> <return>  to replace it with another command,\MessageBreak or  <return>  to continue without it.} 0.01; \relax $hgrad = \relax \GenericError  {               }{LaTeX Error: Bad math environment delimiter}{See the LaTeX manual or LaTeX Companion for explanation.}{Your command was ignored.\MessageBreak Type  I <command> <return>  to replace it with another command,\MessageBreak or  <return>  to continue without it.}1.5; 50 it\IeC {\'e}rations \relax }}{7}}
\newlabel{fig:grad3DT5}{{13}{7}}
\bibdata{bibliographie}
\bibcite{frey2}{{1}{2003}{{Frey et Alauzet}}{{}}}
\bibcite{leo}{{2}{2015}{{Nouveau \emph  {et~al.}}}{{Nouveau, Beaugendre, Dobrzynski, Abgrall, et Ricchiutto}}}
