\relax 
\catcode `:\active 
\catcode `;\active 
\catcode `!\active 
\catcode `?\active 
\bibstyle{abbrvnat-fr}
\citation{askes}
\select@language{french}
\@writefile{toc}{\select@language{french}}
\@writefile{lof}{\select@language{french}}
\@writefile{lot}{\select@language{french}}
\@writefile{toc}{\contentsline {section}{\numberline {1}Introduction et objectifs}{1}}
\@writefile{lof}{\contentsline {figure}{\numberline {1}{\ignorespaces R\IeC {\'e}sultats de l'adaptation \IeC {\`a} des fonctions Level Set en mouvement, en utilisant les proc\IeC {\'e}dure ant\IeC {\'e}rieures \relax }}{1}}
\providecommand*\caption@xref[2]{\@setref\relax\@undefined{#1}}
\newlabel{fig:bad}{{1}{1}}
\@writefile{toc}{\contentsline {section}{\numberline {2}Proc\IeC {\'e}dure adopt\IeC {\'e}e}{1}}
\@writefile{lot}{\contentsline {table}{\numberline {1}{\ignorespaces D\IeC {\'e}finition des tailles d\IeC {\'e}sir\IeC {\'e}es \relax }}{2}}
\newlabel{tab:tailles}{{1}{2}}
\@writefile{toc}{\contentsline {section}{\numberline {3}R\IeC {\'e}sultats}{2}}
\@writefile{toc}{\contentsline {subsection}{\numberline {3.1}Maillage initial homog\IeC {\`e}ne}{2}}
\newlabel{fig:iter0T1}{{2a}{3}}
\newlabel{sub@fig:iter0T1}{{a}{3}}
\newlabel{fig:iter5T1}{{2b}{3}}
\newlabel{sub@fig:iter5T1}{{b}{3}}
\newlabel{fig:iter10T1}{{2c}{3}}
\newlabel{sub@fig:iter10T1}{{c}{3}}
\newlabel{fig:iter10T1Detail}{{2d}{3}}
\newlabel{sub@fig:iter10T1Detail}{{d}{3}}
\@writefile{lof}{\contentsline {figure}{\numberline {2}{\ignorespaces Adaptation - Cercle (mouvement en 10 pas) \relax }}{3}}
\newlabel{fig:CercleT1}{{2}{3}}
\newlabel{fig:interm0T1}{{3a}{3}}
\newlabel{sub@fig:interm0T1}{{a}{3}}
\newlabel{fig:interm50T1}{{3b}{3}}
\newlabel{sub@fig:interm50T1}{{b}{3}}
\newlabel{fig:interm100T1}{{3c}{3}}
\newlabel{sub@fig:interm100T1}{{c}{3}}
\newlabel{fig:interm150T1}{{3d}{3}}
\newlabel{sub@fig:interm150T1}{{d}{3}}
\@writefile{lof}{\contentsline {figure}{\numberline {3}{\ignorespaces It\IeC {\'e}rations de Jacobi - Cercle (5\IeC {\`e}me pas du mouvement) \relax }}{3}}
\newlabel{fig:intermCercleT1}{{3}{3}}
\newlabel{fig:iter0T5}{{4a}{4}}
\newlabel{sub@fig:iter0T5}{{a}{4}}
\newlabel{fig:iter1T5}{{4b}{4}}
\newlabel{sub@fig:iter1T5}{{b}{4}}
\newlabel{fig:iter2T5}{{4c}{4}}
\newlabel{sub@fig:iter2T5}{{c}{4}}
\newlabel{fig:iter2T5Detail}{{4d}{4}}
\newlabel{sub@fig:iter2T5Detail}{{d}{4}}
\@writefile{lof}{\contentsline {figure}{\numberline {4}{\ignorespaces Adaptation - Cercle (mouvement en 2 pas) \relax }}{4}}
\newlabel{fig:CercleT5}{{4}{4}}
\newlabel{fig:interm0T5}{{5a}{4}}
\newlabel{sub@fig:interm0T5}{{a}{4}}
\newlabel{fig:interm50T5}{{5b}{4}}
\newlabel{sub@fig:interm50T5}{{b}{4}}
\newlabel{fig:interm100T5}{{5c}{4}}
\newlabel{sub@fig:interm100T5}{{c}{4}}
\newlabel{fig:interm200T5}{{5d}{4}}
\newlabel{sub@fig:interm200T5}{{d}{4}}
\@writefile{lof}{\contentsline {figure}{\numberline {5}{\ignorespaces It\IeC {\'e}rations de Jacobi - Cercle (1\IeC {\`e}me pas du mouvement) \relax }}{4}}
\newlabel{fig:intermCercleT5}{{5}{4}}
\newlabel{fig:iter0T3}{{6a}{6}}
\newlabel{sub@fig:iter0T3}{{a}{6}}
\newlabel{fig:iter10T3}{{6b}{6}}
\newlabel{sub@fig:iter10T3}{{b}{6}}
\newlabel{fig:iter20T3}{{6c}{6}}
\newlabel{sub@fig:iter20T3}{{c}{6}}
\newlabel{fig:iter20T3Detail}{{6d}{6}}
\newlabel{sub@fig:iter20T3Detail}{{d}{6}}
\@writefile{lof}{\contentsline {figure}{\numberline {6}{\ignorespaces Adaptation - Cercle (mouvement en 20 pas) \relax }}{6}}
\newlabel{fig:CercleT3}{{6}{6}}
\newlabel{fig:interm0T3}{{7a}{6}}
\newlabel{sub@fig:interm0T3}{{a}{6}}
\newlabel{fig:interm50T3}{{7b}{6}}
\newlabel{sub@fig:interm50T3}{{b}{6}}
\newlabel{fig:interm100T3}{{7c}{6}}
\newlabel{sub@fig:interm100T3}{{c}{6}}
\newlabel{fig:interm150T3}{{7d}{6}}
\newlabel{sub@fig:interm150T3}{{d}{6}}
\@writefile{lof}{\contentsline {figure}{\numberline {7}{\ignorespaces It\IeC {\'e}rations de Jacobi - Cercle (10\IeC {\`e}me pas du mouvement) \relax }}{6}}
\newlabel{fig:intermCercleT3}{{7}{6}}
\newlabel{fig:iter0T6}{{8a}{7}}
\newlabel{sub@fig:iter0T6}{{a}{7}}
\newlabel{fig:iter20T6}{{8b}{7}}
\newlabel{sub@fig:iter20T6}{{b}{7}}
\newlabel{fig:iter40T6}{{8c}{7}}
\newlabel{sub@fig:iter40T6}{{c}{7}}
\newlabel{fig:iter40T6Detail}{{8d}{7}}
\newlabel{sub@fig:iter40T6Detail}{{d}{7}}
\@writefile{lof}{\contentsline {figure}{\numberline {8}{\ignorespaces Adaptation - Cercle (mouvement en 40 pas) \relax }}{7}}
\newlabel{fig:CercleT6}{{8}{7}}
\newlabel{fig:interm0T6}{{9a}{7}}
\newlabel{sub@fig:interm0T6}{{a}{7}}
\newlabel{fig:interm50T6}{{9b}{7}}
\newlabel{sub@fig:interm50T6}{{b}{7}}
\newlabel{fig:interm100T6}{{9c}{7}}
\newlabel{sub@fig:interm100T6}{{c}{7}}
\newlabel{fig:interm150T6}{{9d}{7}}
\newlabel{sub@fig:interm150T6}{{d}{7}}
\@writefile{lof}{\contentsline {figure}{\numberline {9}{\ignorespaces It\IeC {\'e}rations de Jacobi - Cercle (20\IeC {\`e}me pas du mouvement) \relax }}{7}}
\newlabel{fig:intermCercleT6}{{9}{7}}
\newlabel{fig:iter0T101}{{10a}{8}}
\newlabel{sub@fig:iter0T101}{{a}{8}}
\newlabel{fig:iter5T101}{{10b}{8}}
\newlabel{sub@fig:iter5T101}{{b}{8}}
\newlabel{fig:iter10T101}{{10c}{8}}
\newlabel{sub@fig:iter10T101}{{c}{8}}
\newlabel{fig:iter10T101Detail}{{10d}{8}}
\newlabel{sub@fig:iter10T101Detail}{{d}{8}}
\@writefile{lof}{\contentsline {figure}{\numberline {10}{\ignorespaces Adaptation - Naca (mouvement en 10 pas) \relax }}{8}}
\newlabel{fig:NacaT101}{{10}{8}}
\newlabel{fig:interm0T101}{{11a}{9}}
\newlabel{sub@fig:interm0T101}{{a}{9}}
\newlabel{fig:interm50T101}{{11b}{9}}
\newlabel{sub@fig:interm50T101}{{b}{9}}
\newlabel{fig:interm100T101}{{11c}{9}}
\newlabel{sub@fig:interm100T101}{{c}{9}}
\newlabel{fig:interm200T101}{{11d}{9}}
\newlabel{sub@fig:interm200T101}{{d}{9}}
\@writefile{lof}{\contentsline {figure}{\numberline {11}{\ignorespaces It\IeC {\'e}rations de Jacobi - Naca (5\IeC {\`e}me pas du mouvement) \relax }}{9}}
\newlabel{fig:intermNacaT101}{{11}{9}}
\newlabel{fig:iter0T102}{{12a}{10}}
\newlabel{sub@fig:iter0T102}{{a}{10}}
\newlabel{fig:iter20T102}{{12b}{10}}
\newlabel{sub@fig:iter20T102}{{b}{10}}
\newlabel{fig:iter40T102}{{12c}{10}}
\newlabel{sub@fig:iter40T102}{{c}{10}}
\newlabel{fig:iter40T102Detail}{{12d}{10}}
\newlabel{sub@fig:iter40T102Detail}{{d}{10}}
\@writefile{lof}{\contentsline {figure}{\numberline {12}{\ignorespaces Adaptation - Naca (mouvement en 40 pas) \relax }}{10}}
\newlabel{fig:NacaT102}{{12}{10}}
\newlabel{fig:interm0T102}{{13a}{11}}
\newlabel{sub@fig:interm0T102}{{a}{11}}
\newlabel{fig:interm50T102}{{13b}{11}}
\newlabel{sub@fig:interm50T102}{{b}{11}}
\newlabel{fig:interm100T102}{{13c}{11}}
\newlabel{sub@fig:interm100T102}{{c}{11}}
\newlabel{fig:interm200T102}{{13d}{11}}
\newlabel{sub@fig:interm200T102}{{d}{11}}
\@writefile{lof}{\contentsline {figure}{\numberline {13}{\ignorespaces It\IeC {\'e}rations de Jacobi - Naca (20\IeC {\`e}me pas du mouvement) \relax }}{11}}
\newlabel{fig:intermNacaT102}{{13}{11}}
\@writefile{toc}{\contentsline {subsection}{\numberline {3.2}Maillage initial avec une zone plus raffin\IeC {\'e}e}{12}}
\@writefile{lof}{\contentsline {figure}{\numberline {14}{\ignorespaces Fonction Level Set repr\IeC {\'e}sent\IeC {\'e}e sur un maillage initial avec une zone plus raffin\IeC {\'e}e \relax }}{12}}
\newlabel{fig:init2}{{14}{12}}
\newlabel{fig:iter0T4}{{15a}{12}}
\newlabel{sub@fig:iter0T4}{{a}{12}}
\newlabel{fig:iter10T4}{{15b}{12}}
\newlabel{sub@fig:iter10T4}{{b}{12}}
\newlabel{fig:iter20T4}{{15c}{12}}
\newlabel{sub@fig:iter20T4}{{c}{12}}
\newlabel{fig:iter20T4Detail}{{15d}{12}}
\newlabel{sub@fig:iter20T4Detail}{{d}{12}}
\@writefile{lof}{\contentsline {figure}{\numberline {15}{\ignorespaces Adaptation - Cercle (mouvement en 20 pas) \relax }}{12}}
\newlabel{fig:CercleT4}{{15}{12}}
\newlabel{fig:interm0T4}{{16a}{13}}
\newlabel{sub@fig:interm0T4}{{a}{13}}
\newlabel{fig:interm50T4}{{16b}{13}}
\newlabel{sub@fig:interm50T4}{{b}{13}}
\newlabel{fig:interm100T4}{{16c}{13}}
\newlabel{sub@fig:interm100T4}{{c}{13}}
\newlabel{fig:interm200T4}{{16d}{13}}
\newlabel{sub@fig:interm200T4}{{d}{13}}
\@writefile{lof}{\contentsline {figure}{\numberline {16}{\ignorespaces It\IeC {\'e}rations de Jacobi - Cercle (10\IeC {\`e}me pas du mouvement) \relax }}{13}}
\newlabel{fig:intermCercleT4}{{16}{13}}
\newlabel{fig:iter0T7}{{17a}{14}}
\newlabel{sub@fig:iter0T7}{{a}{14}}
\newlabel{fig:iter50T7}{{17b}{14}}
\newlabel{sub@fig:iter50T7}{{b}{14}}
\newlabel{fig:iter100T7}{{17c}{14}}
\newlabel{sub@fig:iter100T7}{{c}{14}}
\newlabel{fig:iter100T7Detail}{{17d}{14}}
\newlabel{sub@fig:iter100T7Detail}{{d}{14}}
\@writefile{lof}{\contentsline {figure}{\numberline {17}{\ignorespaces Adaptation - Cercle (mouvement en 100 pas) \relax }}{14}}
\newlabel{fig:CercleT7}{{17}{14}}
\bibdata{bibliographie}
\bibcite{askes}{{1}{2000}{{ASKES \emph  {et~al.}}}{{ASKES, SLUYS, et JONG}}}
\@writefile{toc}{\contentsline {section}{\numberline {4}ANNEXE : tests de d\IeC {\'e}sadaptation}{15}}
\newlabel{sec:annexe}{{4}{15}}
\newlabel{fig:unadaptInitT1}{{18a}{16}}
\newlabel{sub@fig:unadaptInitT1}{{a}{16}}
\newlabel{fig:unadapt0T1}{{18b}{16}}
\newlabel{sub@fig:unadapt0T1}{{b}{16}}
\newlabel{fig:unadapt50T1}{{18c}{16}}
\newlabel{sub@fig:unadapt50T1}{{c}{16}}
\newlabel{fig:unadapt100T1}{{18d}{16}}
\newlabel{sub@fig:unadapt100T1}{{d}{16}}
\newlabel{fig:unadapt200T1}{{18e}{16}}
\newlabel{sub@fig:unadapt200T1}{{e}{16}}
\newlabel{fig:unadapt300T1}{{18f}{16}}
\newlabel{sub@fig:unadapt300T1}{{f}{16}}
\@writefile{lof}{\contentsline {figure}{\numberline {18}{\ignorespaces Test 1 : Cercle \relax }}{16}}
\newlabel{fig:unadaptT1}{{18}{16}}
\newlabel{fig:unadaptInitT2}{{19a}{17}}
\newlabel{sub@fig:unadaptInitT2}{{a}{17}}
\newlabel{fig:unadapt0T2}{{19b}{17}}
\newlabel{sub@fig:unadapt0T2}{{b}{17}}
\newlabel{fig:unadapt50T2}{{19c}{17}}
\newlabel{sub@fig:unadapt50T2}{{c}{17}}
\newlabel{fig:unadapt100T2}{{19d}{17}}
\newlabel{sub@fig:unadapt100T2}{{d}{17}}
\newlabel{fig:unadapt200T2}{{19e}{17}}
\newlabel{sub@fig:unadapt200T2}{{e}{17}}
\newlabel{fig:unadapt300T2}{{19f}{17}}
\newlabel{sub@fig:unadapt300T2}{{f}{17}}
\@writefile{lof}{\contentsline {figure}{\numberline {19}{\ignorespaces Test 2 : Naca \relax }}{17}}
\newlabel{fig:unadaptT2}{{19}{17}}
\newlabel{fig:unadaptInitT3}{{20a}{18}}
\newlabel{sub@fig:unadaptInitT3}{{a}{18}}
\newlabel{fig:unadapt0T3}{{20b}{18}}
\newlabel{sub@fig:unadapt0T3}{{b}{18}}
\newlabel{fig:unadapt50T3}{{20c}{18}}
\newlabel{sub@fig:unadapt50T3}{{c}{18}}
\newlabel{fig:unadapt100T3}{{20d}{18}}
\newlabel{sub@fig:unadapt100T3}{{d}{18}}
\newlabel{fig:unadapt150T3}{{20e}{18}}
\newlabel{sub@fig:unadapt150T3}{{e}{18}}
\newlabel{fig:unadapt200T3}{{20f}{18}}
\newlabel{sub@fig:unadapt200T3}{{f}{18}}
\@writefile{lof}{\contentsline {figure}{\numberline {20}{\ignorespaces Test 3 : Anisotrope \relax }}{18}}
\newlabel{fig:unadaptT3}{{20}{18}}
