This is BibTeX, Version 0.99d (TeX Live 2013/Debian)
Capacity: max_strings=35307, hash_size=35307, hash_prime=30011
The top-level auxiliary file: rapport_LSAdv.aux
The style file: abbrvnat-fr.bst
Database file #1: bibliographie.bib
You've used 1 entry,
            2772 wiz_defined-function locations,
            616 strings with 5186 characters,
and the built_in function-call counts, 486 in all, are:
= -- 43
> -- 27
< -- 0
+ -- 10
- -- 9
* -- 35
:= -- 99
add.period$ -- 2
call.type$ -- 1
change.case$ -- 7
chr.to.int$ -- 1
cite$ -- 1
duplicate$ -- 19
empty$ -- 30
format.name$ -- 10
if$ -- 91
int.to.chr$ -- 1
int.to.str$ -- 1
missing$ -- 1
newline$ -- 14
num.names$ -- 4
pop$ -- 11
preamble$ -- 1
purify$ -- 6
quote$ -- 0
skip$ -- 15
stack$ -- 0
substring$ -- 12
swap$ -- 1
text.length$ -- 0
text.prefix$ -- 0
top$ -- 0
type$ -- 11
warning$ -- 0
while$ -- 3
width$ -- 0
write$ -- 20
