\relax 
\catcode `:\active 
\catcode `;\active 
\catcode `!\active 
\catcode `?\active 
\bibstyle{abbrvnat-fr}
\citation{ducrot}
\citation{arpaia}
\select@language{french}
\@writefile{toc}{\select@language{french}}
\@writefile{lof}{\select@language{french}}
\@writefile{lot}{\select@language{french}}
\@writefile{toc}{\contentsline {section}{\numberline {1}Intoduction}{1}}
\@writefile{toc}{\contentsline {section}{\numberline {2}Le mod\IeC {\`e}le}{1}}
\newlabel{sec:modele}{{2}{1}}
\@writefile{toc}{\contentsline {subsection}{\numberline {2.1}Description du probl\IeC {\`e}me}{1}}
\newlabel{eq:laplacien}{{2}{2}}
\newlabel{eq:omega}{{3}{2}}
\newlabel{eq:systeme}{{4}{2}}
\newlabel{eq:faible}{{5}{2}}
\citation{vecNormal}
\@writefile{toc}{\contentsline {subsection}{\numberline {2.2}Discr\IeC {\'e}tisation en \IeC {\'e}l\IeC {\'e}ments finis}{3}}
\newlabel{eq:u_disc}{{7}{3}}
\newlabel{eq:syst_final}{{9}{3}}
\@writefile{toc}{\contentsline {subsection}{\numberline {2.3}Quelques \IeC {\'e}l\IeC {\'e}ments pour le calcul de \relax $K\relax \GenericError  {               }{LaTeX Error: Bad math environment delimiter}{See the LaTeX manual or LaTeX Companion for explanation.}{Your command was ignored.\MessageBreak Type  I <command> <return>  to replace it with another command,\MessageBreak or  <return>  to continue without it.}}{3}}
\citation{ducrot}
\@writefile{toc}{\contentsline {subsection}{\numberline {2.4}R\IeC {\'e}solution du syst\IeC {\`e}me lin\IeC {\'e}aire}{5}}
\citation{loseille}
\@writefile{toc}{\contentsline {section}{\numberline {3}Application \IeC {\`a} la fonction Level Set}{6}}
\newlabel{sec:application}{{3}{6}}
\@writefile{lof}{\contentsline {figure}{\numberline {1}{\ignorespaces Exemple d'adaptation \IeC {\`a} la fonction Level Set \relax }}{6}}
\providecommand*\caption@xref[2]{\@setref\relax\@undefined{#1}}
\newlabel{fig:exLS}{{1}{6}}
\@writefile{toc}{\contentsline {subsection}{\numberline {3.1}Construction de la fonction \IeC {\`a} adapter}{6}}
\@writefile{lof}{\contentsline {figure}{\numberline {2}{\ignorespaces Adaptation \IeC {\`a} une fonction Level Set modifi\IeC {\'e} avec une variation lin\IeC {\'e}aire \relax }}{7}}
\newlabel{fig:LSlin}{{2}{7}}
\newlabel{eq:atan}{{14}{7}}
\citation{rippa}
\@writefile{lof}{\contentsline {figure}{\numberline {3}{\ignorespaces Comparaison des options pour la lissage de la fonction \IeC {\`a} adapter \relax }}{8}}
\newlabel{fig:atan}{{3}{8}}
\@writefile{toc}{\contentsline {subsection}{\numberline {3.2}Choix des param\IeC {\`e}tres}{8}}
\@writefile{lof}{\contentsline {figure}{\numberline {4}{\ignorespaces Influence des param\IeC {\`e}tres \relax $\alpha \relax \GenericError  {               }{LaTeX Error: Bad math environment delimiter}{See the LaTeX manual or LaTeX Companion for explanation.}{Your command was ignored.\MessageBreak Type  I <command> <return>  to replace it with another command,\MessageBreak or  <return>  to continue without it.} et \relax $\beta \relax \GenericError  {               }{LaTeX Error: Bad math environment delimiter}{See the LaTeX manual or LaTeX Companion for explanation.}{Your command was ignored.\MessageBreak Type  I <command> <return>  to replace it with another command,\MessageBreak or  <return>  to continue without it.} sur l'adaptation du maillage (les deux cas ave \relax $\delta = 0.02\relax \GenericError  {               }{LaTeX Error: Bad math environment delimiter}{See the LaTeX manual or LaTeX Companion for explanation.}{Your command was ignored.\MessageBreak Type  I <command> <return>  to replace it with another command,\MessageBreak or  <return>  to continue without it.}) \relax }}{9}}
\newlabel{fig:alphabeta}{{4}{9}}
\@writefile{lof}{\contentsline {figure}{\numberline {5}{\ignorespaces D\IeC {\'e}tail d'un maillage obtenu avec \relax $\delta = 0.005\relax \GenericError  {               }{LaTeX Error: Bad math environment delimiter}{See the LaTeX manual or LaTeX Companion for explanation.}{Your command was ignored.\MessageBreak Type  I <command> <return>  to replace it with another command,\MessageBreak or  <return>  to continue without it.} \relax }}{9}}
\newlabel{fig:anisoNormal}{{5}{9}}
\@writefile{lof}{\contentsline {figure}{\numberline {6}{\ignorespaces Exemples d'adaptation \IeC {\`a} une fonction Level Set \relax }}{10}}
\newlabel{fig:example}{{6}{10}}
\@writefile{toc}{\contentsline {subsection}{\numberline {3.3}Relaxation et qualit\IeC {\'e} du maillage}{10}}
\@writefile{lof}{\contentsline {figure}{\numberline {7}{\ignorespaces R\IeC {\'e}sultat de l'optimisation d'un \IeC {\'e}l\IeC {\'e}ment \relax }}{11}}
\newlabel{fig:optim}{{7}{11}}
\@writefile{toc}{\contentsline {section}{\numberline {4}Adaptation \IeC {\`a} un cas non stationnaire}{11}}
\newlabel{sec:nonstat}{{4}{11}}
\@writefile{lof}{\contentsline {figure}{\numberline {8}{\ignorespaces Maillages finaux des adaptions partant du maillage initial \IeC {\`a} chaque pas du mouvement de la surface \relax }}{12}}
\newlabel{fig:optim_bad}{{8}{12}}
\@writefile{toc}{\contentsline {section}{\numberline {5}Autres rapports}{12}}
\bibdata{bibliographie}
\bibcite{arpaia}{{1}{2015}{{Arpaia et Ricchiuto}}{{}}}
\bibcite{vecNormal}{{2}{}{{Chen}}{{}}}
\@writefile{lof}{\contentsline {figure}{\numberline {9}{\ignorespaces Adaptation \IeC {\`a} un cercle advect\IeC {\'e} \relax }}{13}}
\newlabel{fig:optim_good_1}{{9}{13}}
\@writefile{lof}{\contentsline {figure}{\numberline {10}{\ignorespaces Adaptation au Naca oscillant \relax }}{13}}
\newlabel{fig:optim_good_2}{{10}{13}}
\bibcite{ducrot}{{3}{2008}{{Ducrot et Frey}}{{}}}
\bibcite{loseille}{{4}{2013}{{Loseille et L\IeC {\"o}hner}}{{}}}
\bibcite{rippa}{{5}{1992}{{Rippa}}{{}}}
