This is BibTeX, Version 0.99d (TeX Live 2013/Debian)
Capacity: max_strings=35307, hash_size=35307, hash_prime=30011
The top-level auxiliary file: recapitulatif_AdaptLS.aux
The style file: abbrvnat-fr.bst
Database file #1: bibliographie.bib
Warning--empty year in vecNormal
You've used 5 entries,
            2772 wiz_defined-function locations,
            650 strings with 5986 characters,
and the built_in function-call counts, 2668 in all, are:
= -- 282
> -- 88
< -- 7
+ -- 32
- -- 27
* -- 161
:= -- 472
add.period$ -- 18
call.type$ -- 5
change.case$ -- 29
chr.to.int$ -- 5
cite$ -- 6
duplicate$ -- 118
empty$ -- 213
format.name$ -- 38
if$ -- 593
int.to.chr$ -- 1
int.to.str$ -- 1
missing$ -- 3
newline$ -- 40
num.names$ -- 24
pop$ -- 53
preamble$ -- 1
purify$ -- 23
quote$ -- 0
skip$ -- 92
stack$ -- 0
substring$ -- 149
swap$ -- 22
text.length$ -- 2
text.prefix$ -- 0
top$ -- 0
type$ -- 55
warning$ -- 1
while$ -- 22
width$ -- 0
write$ -- 85
(There was 1 warning)
