\relax 
\catcode `:\active 
\catcode `;\active 
\catcode `!\active 
\catcode `?\active 
\bibstyle{abbrvnat-fr}
\citation{arpaia}
\select@language{french}
\@writefile{toc}{\select@language{french}}
\@writefile{lof}{\select@language{french}}
\@writefile{lot}{\select@language{french}}
\@writefile{toc}{\contentsline {section}{\numberline {1}Introduction}{1}}
\citation{docMMG}
\citation{docMedit}
\@writefile{toc}{\contentsline {section}{\numberline {2}Format des fichiers d'entr\IeC {\'e}e et de sortie}{2}}
\@writefile{toc}{\contentsline {section}{\numberline {3}Lancement de FMG}{2}}
\@writefile{toc}{\contentsline {subsection}{\numberline {3.1}Commande}{2}}
\@writefile{toc}{\contentsline {subsection}{\numberline {3.2}Fichiers requises}{2}}
\@writefile{toc}{\contentsline {subsection}{\numberline {3.3}Options}{2}}
\@writefile{toc}{\contentsline {section}{\numberline {4}Appel de la biblioth\IeC {\`e}que FMG}{4}}
\@writefile{toc}{\contentsline {subsection}{\numberline {4.1}Arguments}{4}}
\@writefile{toc}{\contentsline {subsection}{\numberline {4.2}Fonctions d'interface}{4}}
\@writefile{toc}{\contentsline {subsection}{\numberline {4.3}Param\IeC {\`e}tres modifiables via les fonctions d'interface}{6}}
\@writefile{toc}{\contentsline {subsubsection}{\numberline {4.3.1}Param\IeC {\`e}tres entiers}{6}}
\@writefile{toc}{\contentsline {subsubsection}{\numberline {4.3.2}Param\IeC {\`e}tres doubles}{7}}
\@writefile{toc}{\contentsline {section}{\numberline {5}Fichiers et informations de sortie}{7}}
\newlabel{sec:output}{{5}{7}}
\@writefile{toc}{\contentsline {subsection}{\numberline {5.1}Fichiers de sortie}{7}}
\bibdata{bibliographie}
\bibcite{arpaia}{{1}{2015}{{Arpaia et Ricchiuto}}{{}}}
\bibcite{docMedit}{{2}{2009}{{Dobrzynski}}{{}}}
\bibcite{docMMG}{{3}{2012}{{Dobrzynski}}{{}}}
\@writefile{toc}{\contentsline {subsubsection}{\numberline {5.1.1}Mode de d\IeC {\'e}bogage}{8}}
\@writefile{toc}{\contentsline {subsection}{\numberline {5.2}Informations imprim\IeC {\'e}es sur l'\IeC {\'e}cran}{8}}
