\begin{thebibliography}{3}
\expandafter\ifx\csname natexlab\endcsname\relax\def\natexlab#1{#1}\fi
\expandafter\ifx\csname fonteauteurs\endcsname\relax
\def\fonteauteurs{\scshape}\fi
\expandafter\ifx\csname url\endcsname\relax
  \def\url#1{{\tt #1}}%
    \message{You should include the url package}\fi

\bibitem[Arpaia et Ricchiuto(2015)]{arpaia}
L.~\bgroup\fonteauteurs\bgroup Arpaia\egroup\egroup{} et
  M.~\bgroup\fonteauteurs\bgroup Ricchiuto\egroup\egroup{} :
\newblock {Mesh adaptation by continuous deformation. Basics : accuracy,
  efficiency, well balancedness}.
\newblock Rap. tech., INRIA Bordeaux Sud-Ouest, 2015.
\newblock RR-8666, <hal-01102124>.

\bibitem[Dobrzynski(2009)]{docMedit}
C.~\bgroup\fonteauteurs\bgroup Dobrzynski\egroup\egroup{} :
\newblock Documentation de medit.
\newblock http://www.ann.jussieu.fr/frey/logiciels/Docmedit.dir/, Juin 2009.

\bibitem[Dobrzynski(2012)]{docMMG}
C.~\bgroup\fonteauteurs\bgroup Dobrzynski\egroup\egroup{} :
\newblock {MMG3D: User Guide}.
\newblock Technical Report RT-0422, {INRIA}, mars 2012.
\newblock URL \url{https://hal.inria.fr/hal-00681813}.

\end{thebibliography}
